bottle==0.12.18
casttube==0.2.1
certifi==2020.4.5.1
chardet==3.0.4
dataclasses-json==0.4.4
deepdiff==4.3.2
fuzzywuzzy==0.18.0
idna==2.9
ifaddr==0.1.6
marshmallow-enum==1.5.1
marshmallow==3.6.0
mypy-extensions==0.4.3
ordered-set==4.0.1
peewee==3.13.3
protobuf==3.12.2
pychromecast==5.3.0
pycparser==2.20
python-dateutil==2.8.1
python-levenshtein==0.12.0
python-mpv==0.4.6
requests==2.23.0
stringcase==1.2.0
typing-extensions==3.7.4.2
typing-inspect==0.6.0
urllib3==1.25.9
